%YAML 1.1
%TAG !u! tag:unity3d.com,2011:
--- !u!162 &1
EditorUserSettings:
  m_ObjectHideFlags: 0
  serializedVersion: 4
  m_ConfigSettings:
    RecentlyUsedScenePath-0:
      value: 22424703114646680e0b0227036c7c1105031d262068053f2e215326ece92021
      flags: 0
    RecentlyUsedScenePath-1:
      value: 22424703114646680e0b0227036c6c111b07142f1f2b233e2867083debf42d
      flags: 0
    RecentlyUsedScenePath-2:
      value: 22424703114646680e0b0227036c7b1500572a25232568252320092a
      flags: 0
    RecentlyUsedScenePath-3:
      value: 22424703114646680e0b0227036c7c111a0215396c04232628255326ece92021
      flags: 0
    RecentlyUsedScenePath-4:
      value: 22424703114646680e0b0227036c73150012146a7e6800392328117ccee5223deea764a7f234362820
      flags: 0
    RecentlyUsedScenePath-5:
      value: 22424703114646680e0b0227036c73150012146a7e67153328271820adcc312ee7eb76bba8163a2a3c0eaf6e4a2b0f36e613
      flags: 0
    RecentlyUsedScenePath-6:
      value: 22424703114646680e0b0227036c7c111a02156a002d303521694f7ccfe1203df0ee37e5f475323d2d16ea3849310d3bbf19010af10c1346031bfa5f5cea1e1a05dc57e91fde1a108b4b52dbc314c5fa
      flags: 0
    RecentlyUsedScenePath-7:
      value: 22424703114646680e0b0227036c73150012146a7e66333e243d04
      flags: 0
    RecentlyUsedScenePath-8:
      value: 22424703114646680e0b0227036c72111f19352f223d68252320092a
      flags: 0
    RecentlyUsedScenePath-9:
      value: 22424703114646680e0b0227036c73150012146a7d66333e243d04
      flags: 0
    vcSharedLogLevel:
      value: 0d5e400f0650
      flags: 0
  m_VCAutomaticAdd: 1
  m_VCDebugCom: 0
  m_VCDebugCmd: 0
  m_VCDebugOut: 0
  m_SemanticMergeMode: 2
  m_VCShowFailedCheckout: 1
  m_VCOverwriteFailedCheckoutAssets: 1
  m_VCProjectOverlayIcons: 1
  m_VCHierarchyOverlayIcons: 1
  m_VCOtherOverlayIcons: 1
  m_VCAllowAsyncUpdate: 1
